{
  "type": "object",
  "properties": {
    "time_examples": {
      "type": "object",
      "properties": {
        "from_time": {
          "type": "string",
          "format": "date-time"
        },
        "to_time": {
          "type": "string",
          "format": "date-time"
        }
      }
    },
    "markdown_examples": {
      "type": "object",
      "properties": {
        "multi_line": {
          "type": "string"
        },
        "list": {
          "type": "string"
        }
      }
    }
  }
}
